…
check assumptions

check model diagnostics

``` r
ols_results_diag <- augment(ols_results)
ols_results_diag
```

    # A tibble: 300 × 12
       .rownames visual_percepti… cubes lozenges sex   school .fitted  .resid   .hat
       <chr>                <dbl> <dbl>    <dbl> <fct> <fct>    <dbl>   <dbl>  <dbl>
     1 1                     3.33  7.75    0.375 Male  Paste…    4.27 -0.941  0.0466
     2 2                     5.33  5.25    2.12  Fema… Paste…    4.68  0.656  0.0130
     3 3                     4.5   5.25    1.88  Fema… Paste…    4.57 -0.0707 0.0131
     4 4                     5.33  7.75    3     Male  Paste…    5.39 -0.0567 0.0194
     5 6                     5.33  5       2.25  Fema… Paste…    4.69  0.642  0.0140
     6 7                     2.83  6       1     Male  Paste…    4.27 -1.44   0.0231
     7 8                     5.67  6.25    1.88  Fema… Paste…    4.72  0.942  0.0138
     8 9                     4.5   5.75    1.5   Fema… Paste…    4.49  0.0116 0.0141
     9 10                    3.5   5.25    0.75  Fema… Paste…    4.09 -0.593  0.0187
    10 11                    3.67  5.75    2     Male  Paste…    4.66 -0.990  0.0153
    # … with 290 more rows, and 3 more variables: .sigma <dbl>, .cooksd <dbl>,
    #   .std.resid <dbl>
…
``` r
r2(log_results)
```

    # R2 for Logistic Regression
      Tjur's R2: 0.148

provide detailed adds

``` r
log_results_diag <- augment(log_results)
log_results_diag
```

    # A tibble: 300 × 10
       .rownames visual_binary lozenges school  .fitted .resid .std.resid    .hat
       <chr>     <fct>            <dbl> <fct>     <dbl>  <dbl>      <dbl>   <dbl>
     1 1         No               0.375 Pasteur -1.53   -0.625     -0.630 0.0143 
     2 2         Yes              2.12  Pasteur -0.147   1.24       1.25  0.00802
     3 3         No               1.88  Pasteur -0.345  -1.03      -1.04  0.00863
     4 4         Yes              3     Pasteur  0.547   0.956      0.960 0.00850
     5 6         Yes              2.25  Pasteur -0.0478  1.20       1.20  0.00784
     6 7         No               1     Pasteur -1.04   -0.779     -0.783 0.0122 
     7 8         Yes              1.88  Pasteur -0.345   1.33       1.33  0.00863
     8 9         No               1.5   Pasteur -0.642  -0.920     -0.924 0.0100 
     9 10        No               0.75  Pasteur -1.24   -0.714     -0.719 0.0132 
    10 11        No               2     Pasteur -0.246  -1.07      -1.08  0.00829
    # … with 290 more rows, and 2 more variables: .sigma <dbl>, .cooksd <dbl>
…
