…
    # Indices of model performance

    AIC     |     BIC | Tjur's R2 |  RMSE | Sigma | Log_loss | Score_log | Score_spherical |   PCP
    ----------------------------------------------------------------------------------------------
    376.707 | 387.829 |     0.122 | 0.461 | 1.115 |    0.616 |  -170.015 |           0.003 | 0.573

provide detailed adds

``` r
log_results_diag <- augment(log_fit)
log_results_diag
```

    # A tibble: 301 × 9
       visual_binary t4_loze…¹ school  .fitted .resid .std.…²    .hat .sigma .cooksd
       <fct>             <int> <fct>     <dbl>  <dbl>   <dbl>   <dbl>  <dbl>   <dbl>
     1 No                    3 Paste… -1.08    -0.764  -0.770 0.0170    1.12 0.00199
     2 Yes                  17 Paste…  0.169    1.11    1.11  0.00772   1.12 0.00221
     3 No                   15 Paste… -0.00959 -1.17   -1.18  0.00838   1.12 0.00281
     4 Yes                  24 Paste…  0.795    0.863   0.867 0.00821   1.12 0.00126
     5 Yes                   7 Paste… -0.725    1.50    1.51  0.0139    1.11 0.00982
     6 Yes                  18 Paste…  0.259    1.07    1.07  0.00753   1.12 0.00197
     7 No                    8 Paste… -0.635   -0.922  -0.928 0.0131    1.12 0.00237
     8 Yes                  15 Paste… -0.00959  1.18    1.19  0.00838   1.12 0.00287
     9 No                   12 Paste… -0.278   -1.06   -1.07  0.0100    1.12 0.00258
    10 No                    6 Paste… -0.814   -0.856  -0.863 0.0147    1.12 0.00224
    # … with 291 more rows, and abbreviated variable names ¹​t4_lozenges,
    #   ²​.std.resid
…
    # Indices of model performance

    AIC     |     BIC | Nagelkerke's R2 |  RMSE | Sigma | Log_loss | Score_log | Score_spherical |   PCP
    ----------------------------------------------------------------------------------------------------
    377.090 | 388.211 |           0.158 | 0.461 | 1.116 |    0.616 |  -169.074 |           0.003 | 0.572

provide detailed adds

``` r
probit_results_diag <- augment(probit_fit)
probit_results_diag
```

    # A tibble: 301 × 9
       visual_binary t4_lozen…¹ school .fitted .resid .std.…²    .hat .sigma .cooksd
       <fct>              <int> <fct>    <dbl>  <dbl>   <dbl>   <dbl>  <dbl>   <dbl>
     1 No                     3 Paste… -0.654  -0.770  -0.777 0.0178    1.12 0.00212
     2 Yes                   17 Paste…  0.0970  1.11    1.12  0.00731   1.12 0.00212
     3 No                    15 Paste… -0.0103 -1.17   -1.18  0.00798   1.12 0.00266
     4 Yes                   24 Paste…  0.473   0.875   0.879 0.00782   1.12 0.00123
     5 Yes                    7 Paste… -0.440   1.49    1.50  0.0138    1.11 0.00960
     6 Yes                   18 Paste…  0.151   1.08    1.08  0.00712   1.12 0.00189
     7 No                     8 Paste… -0.386  -0.928  -0.934 0.0129    1.12 0.00237
     8 Yes                   15 Paste… -0.0103  1.18    1.19  0.00798   1.12 0.00275
     9 No                    12 Paste… -0.171  -1.06   -1.07  0.00963   1.12 0.00249
    10 No                     6 Paste… -0.493  -0.863  -0.869 0.0148    1.12 0.00229
    # … with 291 more rows, and abbreviated variable names ¹​t4_lozenges,
    #   ²​.std.resid
…
